{"photos":{"page":1, "pages":903, "perpage":100, "total":"90231", "photo":[{"id":"97951579", "owner":"48135670@N00", "secret":"d7e765d679", "server":"31", "farm":1, "title":"Hurricane Katrina from Space (hurricanekatrina)", "ispublic":1, "isfriend":0, "isfamily":0}, {"id":"94905986", "owner":"68612399@N00", "secret":"9f0bd0895f", "server":"11", "farm":1, "title":"New Orleans Hurricane Katrina Relief", "ispublic":1, "isfriend":0, "isfamily":0}, {"id":"43323400", "owner":"32171214@N00", "secret":"3f9288eb3b", "server":"33", "farm":1, "title":"Hurricane Katrina [Marriage]", "ispublic":1, "isfriend":0, "isfamily":0}, {"id":"39035502", "owner":"69755388@N00", "secret":"df78cbe32a", "server":"30", "farm":1, "title":"Hurricane Katrina August 28 2005 NASA", "ispublic":1, "isfriend":0, "isfamily":0}, {"id":"39222094", "owner":"32171214@N00", "secret":"5f7b124b99", "server":"21", "farm":1, "title":"Hurricane Katrina [Getting Ready]", "ispublic":1, "isfriend":0, "isfamily":0}, {"id":"39035501", "owner":"69755388@N00", "secret":"24d4d345a4", "server":"23", "farm":1, "title":"Hurricane Katrina Eye viewed from Hurricane Hunter", "ispublic":1, "isfriend":0, "isfamily":0}, {"id":"39899809", "owner":"12261901@N00", "secret":"0b73a4ce8b", "server":"21", "farm":1, "title":"Hurricane Katrina Eye viewed from Hurricane Hunter", "ispublic":1, "isfriend":0, "isfamily":0}, {"id":"39688168", "owner":"38113260@N00", "secret":"3c6e9e75b8", "server":"22", "farm":1, "title":"Hurricane Katrina Animal Rescue Organizations.", "ispublic":1, "isfriend":0, "isfamily":0}, {"id":"40719712", "owner":"81876992@N00", "secret":"c3001177aa", "server":"26", "farm":1, "title":"Hurricane Katrina Satellite Image", "ispublic":1, "isfriend":0, "isfamily":0}, {"id":"64237713", "owner":"67259980@N00", "secret":"27918e5a50", "server":"31", "farm":1, "title":"Hurricane Katrina", "ispublic":1, "isfriend":0, "isfamily":0}, {"id":"222620863", "owner":"27876367@N00", "secret":"dab6d4e094", "server":"72", "farm":1, "title":"Hurricane Katrina  New Orleans", "ispublic":1, "isfriend":0, "isfamily":0}, {"id":"39012234", "owner":"84603421@N00", "secret":"7b7b4c752d", "server":"30", "farm":1, "title":"Hurricane Katrina", "ispublic":1, "isfriend":0, "isfamily":0}, {"id":"226837711", "owner":"83631708@N00", "secret":"c255872e34", "server":"77", "farm":1, "title":"Biloxi,MS one year after Hurricane Katrina", "ispublic":1, "isfriend":0, "isfamily":0}, {"id":"40418617", "owner":"32171214@N00", "secret":"ce926e2133", "server":"28", "farm":1, "title":"Hurricane Katrina [Entertainment]", "ispublic":1, "isfriend":0, "isfamily":0}, {"id":"40366351", "owner":"77902375@N00", "secret":"3b0e494e5a", "server":"28", "farm":1, "title":"Hurricane Katrina Donations & Volunteers", "ispublic":1, "isfriend":0, "isfamily":0}, {"id":"40126248", "owner":"94858257@N00", "secret":"4f0740bed4", "server":"26", "farm":1, "title":"Hurricane Katrina - Biloxi - \"We Shoot Looters\" Outside an Apartment Complex", "ispublic":1, "isfriend":0, "isfamily":0}, {"id":"39442019", "owner":"69755388@N00", "secret":"4ffd965d2f", "server":"23", "farm":1, "title":"Hurricane Katrina September 01 2005", "ispublic":1, "isfriend":0, "isfamily":0}, {"id":"38673796", "owner":"58657140@N00", "secret":"8730a2781d", "server":"26", "farm":1, "title":"Hurricane Katrina 009  View of D Street adjacent to Central Steam Plant", "ispublic":1, "isfriend":0, "isfamily":0}, {"id":"432101813", "owner":"87643660@N00", "secret":"28000c700b", "server":"157", "farm":1, "title":"Hurricane Katrina", "ispublic":1, "isfriend":0, "isfamily":0}, {"id":"41879866", "owner":"63931697@N00", "secret":"3d0f6c820a", "server":"27", "farm":1, "title":"07_HURRICANE-KATRINA-TOPIX-dave martin", "ispublic":1, "isfriend":0, "isfamily":0}, {"id":"1364826585", "owner":"13247052@N08", "secret":"dfd4aeb382", "server":"1276", "farm":2, "title":"hurricane katrina", "ispublic":1, "isfriend":0, "isfamily":0}, {"id":"39252552", "owner":"28817993@N00", "secret":"791a1c7f18", "server":"26", "farm":1, "title":"Coast Guard Dolphin H-65 during Hurricane Katrina operations", "ispublic":1, "isfriend":0, "isfamily":0}, {"id":"39826948", "owner":"94858257@N00", "secret":"4c8a3511a6", "server":"28", "farm":1, "title":"Hurricane Katrina - Biloxi", "ispublic":1, "isfriend":0, "isfamily":0}, {"id":"37423807", "owner":"26395196@N00", "secret":"ce129bb56e", "server":"27", "farm":1, "title":"2005-8-25 Hurricane Katrina", "ispublic":1, "isfriend":0, "isfamily":0}, {"id":"52250104", "owner":"69821972@N00", "secret":"5d42497db7", "server":"30", "farm":1, "title":"Hurricane Katrina Relief", "ispublic":1, "isfriend":0, "isfamily":0}, {"id":"38673740", "owner":"58657140@N00", "secret":"44ed7beb7c", "server":"24", "farm":1, "title":"Hurricane Katrina 007  Zone 1  Bldg 4422", "ispublic":1, "isfriend":0, "isfamily":0}, {"id":"38501841", "owner":"81876992@N00", "secret":"00d612b8d8", "server":"21", "farm":1, "title":"Hurricane Katrina Track - Google Map", "ispublic":1, "isfriend":0, "isfamily":0}, {"id":"1365721702", "owner":"13247052@N08", "secret":"3cd4fe2343", "server":"1401", "farm":2, "title":"hurricane katrina aftermath", "ispublic":1, "isfriend":0, "isfamily":0}, {"id":"38673841", "owner":"58657140@N00", "secret":"cd9fd6430b", "server":"22", "farm":1, "title":"Hurricane Katrina 011  View along Chappie James with Wing HQ to the Left", "ispublic":1, "isfriend":0, "isfamily":0}, {"id":"1267282683", "owner":"48135670@N00", "secret":"d44fc7033e", "server":"1217", "farm":2, "title":"Hurricane Katrina from Space", "ispublic":1, "isfriend":0, "isfamily":0}, {"id":"40688171", "owner":"89765952@N00", "secret":"4a31610e7a", "server":"31", "farm":1, "title":"Hurricane Katrina Candle Prayer", "ispublic":1, "isfriend":0, "isfamily":0}, {"id":"228480917", "owner":"51035802940@N01", "secret":"edf1ec2d1d", "server":"91", "farm":1, "title":"Hurricane Katrina Victims Still Need Help", "ispublic":1, "isfriend":0, "isfamily":0}, {"id":"40920120", "owner":"28817993@N00", "secret":"4cf233b71e", "server":"23", "farm":1, "title":"Hurricane Katrina", "ispublic":1, "isfriend":0, "isfamily":0}, {"id":"39825013", "owner":"94858257@N00", "secret":"1776a3e411", "server":"23", "farm":1, "title":"Hurricane Katrina - Biloxi Lighthouse, Flag", "ispublic":1, "isfriend":0, "isfamily":0}, {"id":"37423823", "owner":"26395196@N00", "secret":"69d097cd15", "server":"25", "farm":1, "title":"2005-8-25 Hurricane Katrina", "ispublic":1, "isfriend":0, "isfamily":0}, {"id":"1364825579", "owner":"13247052@N08", "secret":"1ed865a8fb", "server":"1077", "farm":2, "title":"hurricane katrina aftermath", "ispublic":1, "isfriend":0, "isfamily":0}, {"id":"39252554", "owner":"28817993@N00", "secret":"1dd76d3f4c", "server":"30", "farm":1, "title":"Coast Guard Jayhawk H-60J during Hurricane Katrina operations", "ispublic":1, "isfriend":0, "isfamily":0}, {"id":"38673778", "owner":"58657140@N00", "secret":"84807e7769", "server":"24", "farm":1, "title":"Hurricane Katrina 008  Rear of Dolan Hall", "ispublic":1, "isfriend":0, "isfamily":0}, {"id":"38673823", "owner":"58657140@N00", "secret":"6b326c9fb6", "server":"25", "farm":1, "title":"Hurricane Katrina 010  Parking Lot along D Street", "ispublic":1, "isfriend":0, "isfamily":0}, {"id":"44842139", "owner":"72944983@N00", "secret":"98af3e4b9a", "server":"24", "farm":1, "title":"Hurricane Katrina-3", "ispublic":1, "isfriend":0, "isfamily":0}, {"id":"38076776", "owner":"81876992@N00", "secret":"93db36012c", "server":"33", "farm":1, "title":"Hurricane Katrina seen in Google Earth", "ispublic":1, "isfriend":0, "isfamily":0}, {"id":"1364827589", "owner":"13247052@N08", "secret":"43224f1baa", "server":"1051", "farm":2, "title":"hurricane katrina aftermath", "ispublic":1, "isfriend":0, "isfamily":0}, {"id":"1365720340", "owner":"13247052@N08", "secret":"2328e074e2", "server":"1323", "farm":2, "title":"hurricane katrina aftermath", "ispublic":1, "isfriend":0, "isfamily":0}, {"id":"529854784", "owner":"8679391@N03", "secret":"ee601e5eec", "server":"1199", "farm":2, "title":"Hurricane Katrina - Chandelier", "ispublic":1, "isfriend":0, "isfamily":0}, {"id":"43339456", "owner":"81876992@N00", "secret":"4168e661bc", "server":"25", "farm":1, "title":"LIDAR map of New Orleans flooding from Hurricane Katrina", "ispublic":1, "isfriend":0, "isfamily":0}, {"id":"40717509", "owner":"81876992@N00", "secret":"745d6137bc", "server":"33", "farm":1, "title":"Gulfport, Mississippi photo - post Hurricane Katrina", "ispublic":1, "isfriend":0, "isfamily":0}, {"id":"40164710", "owner":"94858257@N00", "secret":"669d5e7915", "server":"25", "farm":1, "title":"Hurricane Katrina - Biloxi - Treasure Bay Casino Hotel", "ispublic":1, "isfriend":0, "isfamily":0}, {"id":"222626637", "owner":"27876367@N00", "secret":"362e0b4faf", "server":"95", "farm":1, "title":"ogrish-dot-com hurricane katrina victim19 New Orleans", "ispublic":1, "isfriend":0, "isfamily":0}, {"id":"151207642", "owner":"48135670@N00", "secret":"9a401103cb", "server":"46", "farm":1, "title":"Hurricane Katrina Storm Surge Map (hurricanekatrina)", "ispublic":1, "isfriend":0, "isfamily":0}, {"id":"39517440", "owner":"28817993@N00", "secret":"75367664f7", "server":"24", "farm":1, "title":"Helping Katrina Survivors: Coastie preps water for transport to victims of Hurricane Katrina", "ispublic":1, "isfriend":0, "isfamily":0}, {"id":"39824423", "owner":"94858257@N00", "secret":"6ec24b3e2c", "server":"26", "farm":1, "title":"Hurricane Katrina - Biloxi - \"The South Will Rise Again\" on Sign", "ispublic":1, "isfriend":0, "isfamily":0}, {"id":"222607704", "owner":"27876367@N00", "secret":"573f29047b", "server":"64", "farm":1, "title":"HURRICANE KATRINA New Orleans", "ispublic":1, "isfriend":0, "isfamily":0}, {"id":"222629158", "owner":"27876367@N00", "secret":"ca12890be1", "server":"69", "farm":1, "title":"perdido st  hurricane katrina  New Orleans", "ispublic":1, "isfriend":0, "isfamily":0}, {"id":"1269080257", "owner":"54905826@N00", "secret":"e885e8c855", "server":"1339", "farm":2, "title":"Our Fleur de Lis Frosted Bathroom Window: The Sky in Shreveport Two Years After Hurricane Katrina", "ispublic":1, "isfriend":0, "isfamily":0}, {"id":"1365722326", "owner":"13247052@N08", "secret":"f328b17243", "server":"1205", "farm":2, "title":"hurricane katrina aftermath", "ispublic":1, "isfriend":0, "isfamily":0}, {"id":"40438826", "owner":"94858257@N00", "secret":"3eec852df0", "server":"25", "farm":1, "title":"Hurricane Katrina - Biloxi", "ispublic":1, "isfriend":0, "isfamily":0}, {"id":"40717505", "owner":"81876992@N00", "secret":"f98f32e06c", "server":"28", "farm":1, "title":"Map of Louisiana Barrier Islands Affected by Hurricane Katrina", "ispublic":1, "isfriend":0, "isfamily":0}, {"id":"39820842", "owner":"94858257@N00", "secret":"4e1f99cb2f", "server":"26", "farm":1, "title":"Hurricane Katrina - Dew Drop Inn Sign in Mobile Hanging On", "ispublic":1, "isfriend":0, "isfamily":0}, {"id":"40464643", "owner":"94858257@N00", "secret":"8023be6e3d", "server":"25", "farm":1, "title":"Hurricane Katrina - Beauvoir", "ispublic":1, "isfriend":0, "isfamily":0}, {"id":"37423818", "owner":"26395196@N00", "secret":"1b9c6cb783", "server":"31", "farm":1, "title":"2005-8-25 Hurricane Katrina", "ispublic":1, "isfriend":0, "isfamily":0}, {"id":"38673623", "owner":"58657140@N00", "secret":"81ab974fba", "server":"22", "farm":1, "title":"Hurricane Katrina 003  view of Thrift Shop and Water Well 1", "ispublic":1, "isfriend":0, "isfamily":0}, {"id":"40117221", "owner":"94858257@N00", "secret":"9e3736d1a0", "server":"23", "farm":1, "title":"Hurricane Katrina - Biloxi - Sharkheads", "ispublic":1, "isfriend":0, "isfamily":0}, {"id":"151207644", "owner":"48135670@N00", "secret":"2fbcf4b881", "server":"52", "farm":1, "title":"Hurricane Katrina Impact Map (hurricanekatrina)", "ispublic":1, "isfriend":0, "isfamily":0}, {"id":"38469806", "owner":"87747630@N00", "secret":"fd86507c2f", "server":"26", "farm":1, "title":"Hurricane Katrina?  \/  Furac\u00e3o Katrina?", "ispublic":1, "isfriend":0, "isfamily":0}, {"id":"37423827", "owner":"26395196@N00", "secret":"4a4a7d642e", "server":"29", "farm":1, "title":"2005-8-25 Hurricane Katrina", "ispublic":1, "isfriend":0, "isfamily":0}, {"id":"44845087", "owner":"72944983@N00", "secret":"e4353470fb", "server":"29", "farm":1, "title":"Hurricane Katrina-10", "ispublic":1, "isfriend":0, "isfamily":0}, {"id":"40424788", "owner":"94858257@N00", "secret":"60676628d6", "server":"30", "farm":1, "title":"Hurricane Katrina - Biloxi - Treasure Bay Casino", "ispublic":1, "isfriend":0, "isfamily":0}, {"id":"40439990", "owner":"94858257@N00", "secret":"228d0d8257", "server":"26", "farm":1, "title":"Hurricane Katrina - Biloxi - President Casino Hotel", "ispublic":1, "isfriend":0, "isfamily":0}, {"id":"38267129", "owner":"83955435@N00", "secret":"911703e77c", "server":"25", "farm":1, "title":"Screen Shot of Hurricane Katrina", "ispublic":1, "isfriend":0, "isfamily":0}, {"id":"816626231", "owner":"8654913@N02", "secret":"4375307de5", "server":"1436", "farm":2, "title":"Damaged Tugs - Hurricane Katrina", "ispublic":1, "isfriend":0, "isfamily":0}, {"id":"222622313", "owner":"27876367@N00", "secret":"4e8e5cb561", "server":"86", "farm":1, "title":"hurricane Katrina damage", "ispublic":1, "isfriend":0, "isfamily":0}, {"id":"39669368", "owner":"83955435@N00", "secret":"d8380b8fe3", "server":"31", "farm":1, "title":"New Sand After TS Dennis Helped Save Dunes After Hurricane Katrina", "ispublic":1, "isfriend":0, "isfamily":0}, {"id":"40465003", "owner":"94858257@N00", "secret":"0fd3417cd2", "server":"31", "farm":1, "title":"Hurricane Katrina - Beauvoir", "ispublic":1, "isfriend":0, "isfamily":0}, {"id":"37605493", "owner":"58003213@N00", "secret":"355c1276df", "server":"24", "farm":1, "title":"Squared Hurricane Katrina Grand Marnier", "ispublic":1, "isfriend":0, "isfamily":0}, {"id":"38673712", "owner":"58657140@N00", "secret":"f5f39c4bd5", "server":"25", "farm":1, "title":"Hurricane Katrina 006  Flooded Car", "ispublic":1, "isfriend":0, "isfamily":0}, {"id":"38673656", "owner":"58657140@N00", "secret":"07c0fbd4b9", "server":"33", "farm":1, "title":"Hurricane Katrina 004  Front of Commissary", "ispublic":1, "isfriend":0, "isfamily":0}, {"id":"353347753", "owner":"27876367@N00", "secret":"0cd63e7970", "server":"141", "farm":1, "title":"Hurricane Katrina Kenner Sunset New Orleans", "ispublic":1, "isfriend":0, "isfamily":0}, {"id":"40348915", "owner":"56669358@N00", "secret":"3d400d3777", "server":"22", "farm":1, "title":"Hurricane katrina - Downtown new orleans", "ispublic":1, "isfriend":0, "isfamily":0}, {"id":"38648152", "owner":"48889094782@N01", "secret":"3fdeb7974c", "server":"29", "farm":1, "title":"Hurricane Katrina Party!", "ispublic":1, "isfriend":0, "isfamily":0}, {"id":"40123525", "owner":"94858257@N00", "secret":"dc43627440", "server":"23", "farm":1, "title":"Hurricane Katrina - Biloxi - Souvenir Center", "ispublic":1, "isfriend":0, "isfamily":0}, {"id":"38673683", "owner":"58657140@N00", "secret":"f22457de09", "server":"27", "farm":1, "title":"Hurricane Katrina 005  View Looking North Down Larcher", "ispublic":1, "isfriend":0, "isfamily":0}, {"id":"222660228", "owner":"27876367@N00", "secret":"c2b600b8a6", "server":"57", "farm":1, "title":"New Orleans, LA--Aerial views of damage caused from Hurricane Katrina the day after the hurricane hit August 30, 2005. Photo by Jocelyn Augustino\/FEMA", "ispublic":1, "isfriend":0, "isfamily":0}, {"id":"38780163", "owner":"99496589@N00", "secret":"a92a8eee31", "server":"29", "farm":1, "title":"Hurricane Katrina", "ispublic":1, "isfriend":0, "isfamily":0}, {"id":"38624474", "owner":"47898188@N00", "secret":"be71d7ef32", "server":"21", "farm":1, "title":"Hurricane Katrina damage", "ispublic":1, "isfriend":0, "isfamily":0}, {"id":"40117462", "owner":"94858257@N00", "secret":"e57cbed733", "server":"24", "farm":1, "title":"Hurricane Katrina - Biloxi - Site of Sonic Hamburgers", "ispublic":1, "isfriend":0, "isfamily":0}, {"id":"38133587", "owner":"16779521@N00", "secret":"b80f0df6ad", "server":"21", "farm":1, "title":"Hurricane-Katrina-Sign-Aug-28-05", "ispublic":1, "isfriend":0, "isfamily":0}, {"id":"40465268", "owner":"94858257@N00", "secret":"493eb10cdb", "server":"27", "farm":1, "title":"Hurricane Katrina - Beauvoir", "ispublic":1, "isfriend":0, "isfamily":0}, {"id":"40425014", "owner":"94858257@N00", "secret":"f07c23ed9b", "server":"30", "farm":1, "title":"Hurricane Katrina - Biloxi - Gators", "ispublic":1, "isfriend":0, "isfamily":0}, {"id":"39824841", "owner":"94858257@N00", "secret":"07d90faea8", "server":"31", "farm":1, "title":"Hurricane Katrina - Biloxi", "ispublic":1, "isfriend":0, "isfamily":0}, {"id":"40107265", "owner":"94858257@N00", "secret":"3ccd1fdac5", "server":"28", "farm":1, "title":"Hurricane Katrina - Biloxi - Mattress Impaled By Tree Limb", "ispublic":1, "isfriend":0, "isfamily":0}, {"id":"38064701", "owner":"81876992@N00", "secret":"bc50882d60", "server":"24", "farm":1, "title":"Hurricane Katrina Satellite image", "ispublic":1, "isfriend":0, "isfamily":0}, {"id":"40424926", "owner":"94858257@N00", "secret":"26f14d6b27", "server":"31", "farm":1, "title":"Hurricane Katrina - Biloxi - Gators", "ispublic":1, "isfriend":0, "isfamily":0}, {"id":"529854842", "owner":"8679391@N03", "secret":"482769602e", "server":"1095", "farm":2, "title":"Hurricane Katrina - Picture", "ispublic":1, "isfriend":0, "isfamily":0}, {"id":"40164592", "owner":"94858257@N00", "secret":"962f2b2229", "server":"26", "farm":1, "title":"Hurricane Katrina - Biloxi - Treasure Bay Casino Hotel", "ispublic":1, "isfriend":0, "isfamily":0}, {"id":"691141708", "owner":"39735679@N00", "secret":"d8900c0077", "server":"1045", "farm":2, "title":"Public Domain: President Bush Arrives in New Orleans after Hurricane Katrina by William Townsend USN, 2005 (DOD 051011-N-9274T-116)", "ispublic":1, "isfriend":0, "isfamily":0}, {"id":"40123271", "owner":"94858257@N00", "secret":"1a1bafaf5a", "server":"32", "farm":1, "title":"Hurricane Katrina - Biloxi", "ispublic":1, "isfriend":0, "isfamily":0}, {"id":"38064702", "owner":"81876992@N00", "secret":"e50c652dbe", "server":"21", "farm":1, "title":"Hurricane Katrina IR image", "ispublic":1, "isfriend":0, "isfamily":0}, {"id":"39820893", "owner":"94858257@N00", "secret":"c9744c0b52", "server":"22", "farm":1, "title":"Hurricane Katrina - Flag at Regions Bank in Mobile at Half-Staff", "ispublic":1, "isfriend":0, "isfamily":0}, {"id":"217821474", "owner":"71592436@N00", "secret":"a4ff50ab0d", "server":"64", "farm":1, "title":"Hurricane Katrina (OOB)", "ispublic":1, "isfriend":0, "isfamily":0}, {"id":"39834845", "owner":"94858257@N00", "secret":"6cd0b81c16", "server":"23", "farm":1, "title":"Hurricane Katrina - Treasure Bay Casino - Biloxi \/ Gulfport", "ispublic":1, "isfriend":0, "isfamily":0}]}, "stat":"ok"}